{
  "name": "Teddiursa",
  "nationalPokedexNumber": 216,
  "primaryType": "normal",
  "abilities": [
    "pickup",
    "quickfeet",
    "h:honeygather"
  ],
  "baseStats": {
    "hp": 60,
    "attack": 80,
    "defence": 50,
    "special_attack": 50,
    "special_defence": 50,
    "speed": 40
  },
  "catchRate": 120,
  "maleRatio": 0.5,
  "shoulderMountable": false,
  "baseExperienceYield": 66,
  "experienceGroup": "medium_fast",
  "eggCycles": 20,
  "eggGroups": [
    "field"
  ],
  "moves": [
    "1:babydolleyes",
    "1:covet",
    "1:faketears",
    "1:fling",
    "1:leer",
    "1:lick",
    "1:scratch",
    "8:furyswipes",
    "13:payback",
    "15:feintattack",
    "17:sweetscent",
    "22:slash",
    "25:playnice",
    "29:playrough",
    "33:charm",
    "37:rest",
    "37:snore",
    "41:thrash",
    "egg:bellydrum",
    "egg:chipaway",
    "egg:closecombat",
    "egg:counter",
    "egg:crosschop",
    "egg:crunch",
    "egg:doubleedge",
    "egg:faketears",
    "egg:furycutter",
    "egg:metalclaw",
    "egg:nightslash",
    "egg:playrough",
    "egg:seismictoss",
    "egg:sleeptalk",
    "egg:takedown",
    "egg:yawn",
    "tm:aerialace",
    "tm:attract",
    "tm:avalanche",
    "tm:bodyslam",
    "tm:brickbreak",
    "tm:bulkup",
    "tm:bulldoze",
    "tm:captivate",
    "tm:charm",
    "tm:closecombat",
    "tm:confide",
    "tm:crunch",
    "tm:cut",
    "tm:dig",
    "tm:doubleteam",
    "tm:earthquake",
    "tm:endure",
    "tm:facade",
    "tm:faketears",
    "tm:firepunch",
    "tm:fling",
    "tm:focuspunch",
    "tm:frustration",
    "tm:gunkshot",
    "tm:helpinghand",
    "tm:hiddenpower",
    "tm:honeclaws",
    "tm:hypervoice",
    "tm:icepunch",
    "tm:lowkick",
    "tm:metalclaw",
    "tm:metronome",
    "tm:naturalgift",
    "tm:payback",
    "tm:playrough",
    "tm:poweruppunch",
    "tm:protect",
    "tm:raindance",
    "tm:rest",
    "tm:retaliate",
    "tm:return",
    "tm:roar",
    "tm:rockslide",
    "tm:rocksmash",
    "tm:rocktomb",
    "tm:round",
    "tm:secretpower",
    "tm:seedbomb",
    "tm:shadowclaw",
    "tm:sleeptalk",
    "tm:strength",
    "tm:substitute",
    "tm:sunnyday",
    "tm:swagger",
    "tm:swift",
    "tm:swordsdance",
    "tm:takedown",
    "tm:taunt",
    "tm:terablast",
    "tm:thief",
    "tm:thunderpunch",
    "tm:torment",
    "tm:toxic",
    "tm:trailblaze",
    "tm:workup",
    "tutor:attract",
    "tutor:bodyslam",
    "tutor:counter",
    "tutor:covet",
    "tutor:crunch",
    "tutor:curse",
    "tutor:cut",
    "tutor:defensecurl",
    "tutor:dig",
    "tutor:doubleedge",
    "tutor:doubleteam",
    "tutor:dynamicpunch",
    "tutor:earthquake",
    "tutor:endure",
    "tutor:faketears",
    "tutor:feintattack",
    "tutor:firepunch",
    "tutor:focusenergy",
    "tutor:focuspunch",
    "tutor:frustration",
    "tutor:furycutter",
    "tutor:furyswipes",
    "tutor:gunkshot",
    "tutor:headbutt",
    "tutor:hiddenpower",
    "tutor:hypervoice",
    "tutor:icepunch",
    "tutor:lastresort",
    "tutor:leer",
    "tutor:lick",
    "tutor:megakick",
    "tutor:megapunch",
    "tutor:metalclaw",
    "tutor:metronome",
    "tutor:mimic",
    "tutor:mudslap",
    "tutor:protect",
    "tutor:refresh",
    "tutor:rest",
    "tutor:return",
    "tutor:roar",
    "tutor:rocksmash",
    "tutor:rollout",
    "tutor:scratch",
    "tutor:seedbomb",
    "tutor:seismictoss",
    "tutor:slash",
    "tutor:sleeptalk",
    "tutor:snore",
    "tutor:strength",
    "tutor:substitute",
    "tutor:sunnyday",
    "tutor:superpower",
    "tutor:swagger",
    "tutor:swift",
    "tutor:swordsdance",
    "tutor:takedown",
    "tutor:thief",
    "tutor:thrash",
    "tutor:thunderpunch",
    "tutor:toxic",
    "tutor:zapcannon"
  ],
  "labels": [
    "gen2"
  ],
  "pokedex": [
    "cobblemon.species.teddiursa.desc"
  ],
  "evolutions": [
    {
      "id": "teddiursa_ursaring",
      "variant": "level_up",
      "result": "ursaring",
      "consumeHeldItem": false,
      "learnableMoves": [],
      "requirements": [
        {
          "variant": "level",
          "minLevel": 30
        }
      ]
    }
  ],
  "baseScale": 1,
  "hitbox": {
    "width": 1,
    "height": 1,
    "fixed": false
  },
  "baseFriendship": 70,
  "evYield": {
    "hp": 0,
    "attack": 1,
    "defence": 0,
    "special_attack": 0,
    "special_defence": 0,
    "speed": 0
  },
  "height": 6,
  "weight": 88,
  "aspects": [],
  "cannotDynamax": false
}