{
  "implemented": true,
  "name": "Sandshrew",
  "nationalPokedexNumber": 27,
  "primaryType": "ground",
  "abilities": [
    "sandveil",
    "h:sandrush"
  ],
  "baseStats": {
    "hp": 50,
    "attack": 75,
    "defence": 85,
    "special_attack": 20,
    "special_defence": 30,
    "speed": 40
  },
  "behaviour": {
    "resting": {
      "canSleep": true,
      "willSleepOnBed": false,
      "depth": "normal",
      "light": "0-4"
    }
  },
  "catchRate": 255,
  "maleRatio": 0.5,
  "shoulderMountable": false,
  "forms": [
    {
      "name": "Alola",
      "primaryType": "ice",
      "secondaryType": "steel",
      "abilities": [
        "snowcloak",
        "h:slushrush"
      ],
      "baseStats": {
        "hp": 50,
        "attack": 75,
        "defence": 90,
        "special_attack": 10,
        "special_defence": 35,
        "speed": 40
      },
      "catchRate": 255,
      "maleRatio": 0.5,
      "baseExperienceYield": 60,
      "baseFriendship": 50,
      "evYield": {
        "hp": 0,
        "attack": 0,
        "defence": 1,
        "special_attack": 0,
        "special_defence": 0,
        "speed": 0
      },
      "experienceGroup": "medium_fast",
      "eggCycles": 20,
      "eggGroups": [
        "field"
      ],
      "moves": [
        "1:defensecurl",
        "1:scratch",
        "3:bide",
        "3:mist",
        "6:powdersnow",
        "7:iceball",
        "9:rollout",
        "12:furycutter",
        "15:rapidspin",
        "18:metalclaw",
        "21:swift",
        "24:furyswipes",
        "27:irondefense",
        "30:slash",
        "33:ironhead",
        "36:gyroball",
        "39:swordsdance",
        "42:hail",
        "45:blizzard",
        "egg:amnesia",
        "egg:chipaway",
        "egg:counter",
        "egg:crushclaw",
        "egg:curse",
        "egg:endure",
        "egg:flail",
        "egg:honeclaws",
        "egg:iciclecrash",
        "egg:iciclespear",
        "egg:metalclaw",
        "egg:nightslash",
        "tm:aerialace",
        "tm:amnesia",
        "tm:attract",
        "tm:auroraveil",
        "tm:avalanche",
        "tm:blizzard",
        "tm:bodyslam",
        "tm:brickbreak",
        "tm:bulldoze",
        "tm:confide",
        "tm:dig",
        "tm:doubleteam",
        "tm:earthquake",
        "tm:endure",
        "tm:facade",
        "tm:fling",
        "tm:frostbreath",
        "tm:frustration",
        "tm:gyroball",
        "tm:hail",
        "tm:hiddenpower",
        "tm:icepunch",
        "tm:iciclespear",
        "tm:icywind",
        "tm:irondefense",
        "tm:ironhead",
        "tm:irontail",
        "tm:leechlife",
        "tm:poisonjab",
        "tm:protect",
        "tm:rest",
        "tm:return",
        "tm:rockslide",
        "tm:rocktomb",
        "tm:round",
        "tm:safeguard",
        "tm:shadowclaw",
        "tm:sleeptalk",
        "tm:snore",
        "tm:stealthrock",
        "tm:substitute",
        "tm:sunnyday",
        "tm:swagger",
        "tm:swift",
        "tm:swordsdance",
        "tm:thief",
        "tm:throatchop",
        "tm:toxic",
        "tm:workup",
        "tm:xscissor",
        "tutor:aquatail",
        "tutor:bide",
        "tutor:blizzard",
        "tutor:brickbreak",
        "tutor:covet",
        "tutor:defensecurl",
        "tutor:dig",
        "tutor:earthquake",
        "tutor:facade",
        "tutor:focuspunch",
        "tutor:furyswipes",
        "tutor:headbutt",
        "tutor:iceball",
        "tutor:icebeam",
        "tutor:icepunch",
        "tutor:iceshard",
        "tutor:icywind",
        "tutor:irondefense",
        "tutor:ironhead",
        "tutor:irontail",
        "tutor:knockoff",
        "tutor:mirrorcoat",
        "tutor:poisonjab",
        "tutor:powdersnow",
        "tutor:protect",
        "tutor:rapidspin",
        "tutor:rest",
        "tutor:rockslide",
        "tutor:scratch",
        "tutor:seismictoss",
        "tutor:slash",
        "tutor:snore",
        "tutor:stealthrock",
        "tutor:steelbeam",
        "tutor:steelroller",
        "tutor:substitute",
        "tutor:superfang",
        "tutor:swift",
        "tutor:swordsdance",
        "tutor:throatchop",
        "tutor:toxic",
        "tutor:tripleaxel",
        "tutor:xscissor"
      ],
      "labels": [
        "gen7",
        "alola_regional"
      ],
      "aspects": [
        "alolan"
      ],
      "height": 7,
      "weight": 400,
      "evolutions": [
        {
          "id": "sandshrew_sandslash",
          "variant": "item_interact",
          "result": "sandslash form=alola",
          "consumeHeldItem": false,
          "learnableMoves": [
            "iciclespear"
          ],
          "requirements": [],
          "requiredContext": "cobblemon:ice_stone"
        }
      ],
      "cannotDynamax": false,
      "battleOnly": false
    }
  ],
  "baseExperienceYield": 60,
  "experienceGroup": "medium_fast",
  "eggCycles": 20,
  "eggGroups": [
    "field"
  ],
  "moves": [
    "1:defensecurl",
    "1:scratch",
    "3:poisonsting",
    "6:sandattack",
    "9:rollout",
    "12:furycutter",
    "14:magnitude",
    "15:rapidspin",
    "18:bulldoze",
    "21:swift",
    "23:sandtomb",
    "24:furyswipes",
    "27:agility",
    "30:slash",
    "33:dig",
    "36:gyroball",
    "39:swordsdance",
    "42:sandstorm",
    "45:earthquake",
    "egg:chipaway",
    "egg:counter",
    "egg:crushclaw",
    "egg:endure",
    "egg:flail",
    "egg:honeclaws",
    "egg:metalclaw",
    "egg:mudshot",
    "egg:mudslap",
    "egg:nightslash",
    "egg:rapidspin",
    "egg:rockclimb",
    "egg:rockslide",
    "egg:rototiller",
    "egg:safeguard",
    "egg:swordsdance",
    "tm:aerialace",
    "tm:agility",
    "tm:amnesia",
    "tm:attract",
    "tm:bodyslam",
    "tm:brickbreak",
    "tm:bulldoze",
    "tm:captivate",
    "tm:confide",
    "tm:cut",
    "tm:dig",
    "tm:doubleteam",
    "tm:earthpower",
    "tm:earthquake",
    "tm:endure",
    "tm:facade",
    "tm:fling",
    "tm:focuspunch",
    "tm:frustration",
    "tm:gyroball",
    "tm:hiddenpower",
    "tm:honeclaws",
    "tm:irontail",
    "tm:leechlife",
    "tm:mudshot",
    "tm:naturalgift",
    "tm:poisonjab",
    "tm:protect",
    "tm:rest",
    "tm:return",
    "tm:rockclimb",
    "tm:rockslide",
    "tm:rocksmash",
    "tm:rocktomb",
    "tm:round",
    "tm:safeguard",
    "tm:sandstorm",
    "tm:sandtomb",
    "tm:secretpower",
    "tm:shadowclaw",
    "tm:sleeptalk",
    "tm:snore",
    "tm:stealthrock",
    "tm:stompingtantrum",
    "tm:strength",
    "tm:substitute",
    "tm:sunnyday",
    "tm:swagger",
    "tm:swift",
    "tm:swordsdance",
    "tm:thief",
    "tm:throatchop",
    "tm:toxic",
    "tm:workup",
    "tm:xscissor",
    "tutor:attract",
    "tutor:bide",
    "tutor:bodyslam",
    "tutor:brickbreak",
    "tutor:counter",
    "tutor:covet",
    "tutor:curse",
    "tutor:cut",
    "tutor:defensecurl",
    "tutor:detect",
    "tutor:dig",
    "tutor:doubleedge",
    "tutor:doubleteam",
    "tutor:dynamicpunch",
    "tutor:earthpower",
    "tutor:earthquake",
    "tutor:endure",
    "tutor:facade",
    "tutor:fissure",
    "tutor:flail",
    "tutor:focuspunch",
    "tutor:frustration",
    "tutor:furycutter",
    "tutor:furyswipes",
    "tutor:headbutt",
    "tutor:hiddenpower",
    "tutor:irontail",
    "tutor:knockoff",
    "tutor:metalclaw",
    "tutor:mimic",
    "tutor:mudslap",
    "tutor:poisonjab",
    "tutor:poisonsting",
    "tutor:protect",
    "tutor:rage",
    "tutor:rapidspin",
    "tutor:rest",
    "tutor:return",
    "tutor:rockslide",
    "tutor:rocksmash",
    "tutor:rollout",
    "tutor:safeguard",
    "tutor:sandattack",
    "tutor:sandstorm",
    "tutor:scorchingsands",
    "tutor:scratch",
    "tutor:seismictoss",
    "tutor:skullbash",
    "tutor:slash",
    "tutor:sleeptalk",
    "tutor:snore",
    "tutor:stealthrock",
    "tutor:steelroller",
    "tutor:stompingtantrum",
    "tutor:strength",
    "tutor:submission",
    "tutor:substitute",
    "tutor:sunnyday",
    "tutor:superfang",
    "tutor:swagger",
    "tutor:swift",
    "tutor:swordsdance",
    "tutor:takedown",
    "tutor:thief",
    "tutor:toxic",
    "tutor:xscissor"
  ],
  "labels": [
    "gen1",
    "kanto_regional"
  ],
  "pokedex": [
    "cobblemon.species.sandshrew.desc"
  ],
  "evolutions": [
    {
      "id": "sandshrew_sandslash",
      "variant": "level_up",
      "result": "sandslash",
      "consumeHeldItem": false,
      "learnableMoves": [],
      "requirements": [
        {
          "variant": "level",
          "minLevel": 22
        }
      ]
    }
  ],
  "baseScale": 0.7,
  "hitbox": {
    "width": 0.8,
    "height": 1,
    "fixed": false
  },
  "baseFriendship": 50,
  "evYield": {
    "hp": 0,
    "attack": 0,
    "defence": 1,
    "special_attack": 0,
    "special_defence": 0,
    "speed": 0
  },
  "height": 6,
  "weight": 120,
  "aspects": [],
  "cannotDynamax": false
}